{
  "images" : [
    {
      "filename" : "40.png",
      "idiom" : "iphone",
      "scale" : "2x",
      "size" : "20x20"
    },
    {
      "filename" : "60.png",
      "idiom" : "iphone",
      "scale" : "3x",
      "size" : "20x20"
    },
    {
      "filename" : "58.png",
      "idiom" : "iphone",
      "scale" : "2x",
      "size" : "29x29"
    },
    {
      "filename" : "87.png",
      "idiom" : "iphone",
      "scale" : "3x",
      "size" : "29x29"
    },
    {
      "filename" : "80.png",
      "idiom" : "iphone",
      "scale" : "2x",
      "size" : "40x40"
    },
    {
      "filename" : "120.png",
      "idiom" : "iphone",
      "scale" : "3x",
      "size" : "40x40"
    },
    {
      "filename" : "120-1.png",
      "idiom" : "iphone",
      "scale" : "2x",
      "size" : "60x60"
    },
    {
      "filename" : "180.png",
      "idiom" : "iphone",
      "scale" : "3x",
      "size" : "60x60"
    },
    {
      "filename" : "20.png",
      "idiom" : "ipad",
      "scale" : "1x",
      "size" : "20x20"
    },
    {
      "filename" : "40-1.png",
      "idiom" : "ipad",
      "scale" : "2x",
      "size" : "20x20"
    },
    {
      "filename" : "29.png",
      "idiom" : "ipad",
      "scale" : "1x",
      "size" : "29x29"
    },
    {
      "filename" : "58-1.png",
      "idiom" : "ipad",
      "scale" : "2x",
      "size" : "29x29"
    },
    {
      "filename" : "40-2.png",
      "idiom" : "ipad",
      "scale" : "1x",
      "size" : "40x40"
    },
    {
      "filename" : "80-1.png",
      "idiom" : "ipad",
      "scale" : "2x",
      "size" : "40x40"
    },
    {
      "filename" : "76.png",
      "idiom" : "ipad",
      "scale" : "1x",
      "size" : "76x76"
    },
    {
      "filename" : "152.png",
      "idiom" : "ipad",
      "scale" : "2x",
      "size" : "76x76"
    },
    {
      "filename" : "167.png",
      "idiom" : "ipad",
      "scale" : "2x",
      "size" : "83.5x83.5"
    },
    {
      "filename" : "appstore.png",
      "idiom" : "ios-marketing",
      "scale" : "1x",
      "size" : "1024x1024"
    },
    {
      "idiom" : "car",
      "scale" : "2x",
      "size" : "60x60"
    },
    {
      "idiom" : "car",
      "scale" : "3x",
      "size" : "60x60"
    },
    {
      "idiom" : "watch",
      "role" : "notificationCenter",
      "scale" : "2x",
      "size" : "24x24",
      "subtype" : "38mm"
    },
    {
      "idiom" : "watch",
      "role" : "notificationCenter",
      "scale" : "2x",
      "size" : "27.5x27.5",
      "subtype" : "42mm"
    },
    {
      "idiom" : "watch",
      "role" : "companionSettings",
      "scale" : "2x",
      "size" : "29x29"
    },
    {
      "idiom" : "watch",
      "role" : "companionSettings",
      "scale" : "3x",
      "size" : "29x29"
    },
    {
      "idiom" : "watch",
      "role" : "notificationCenter",
      "scale" : "2x",
      "size" : "33x33",
      "subtype" : "45mm"
    },
    {
      "idiom" : "watch",
      "role" : "appLauncher",
      "scale" : "2x",
      "size" : "40x40",
      "subtype" : "38mm"
    },
    {
      "idiom" : "watch",
      "role" : "appLauncher",
      "scale" : "2x",
      "size" : "44x44",
      "subtype" : "40mm"
    },
    {
      "idiom" : "watch",
      "role" : "appLauncher",
      "scale" : "2x",
      "size" : "46x46",
      "subtype" : "41mm"
    },
    {
      "idiom" : "watch",
      "role" : "appLauncher",
      "scale" : "2x",
      "size" : "50x50",
      "subtype" : "44mm"
    },
    {
      "idiom" : "watch",
      "role" : "appLauncher",
      "scale" : "2x",
      "size" : "51x51",
      "subtype" : "45mm"
    },
    {
      "idiom" : "watch",
      "role" : "quickLook",
      "scale" : "2x",
      "size" : "86x86",
      "subtype" : "38mm"
    },
    {
      "idiom" : "watch",
      "role" : "quickLook",
      "scale" : "2x",
      "size" : "98x98",
      "subtype" : "42mm"
    },
    {
      "idiom" : "watch",
      "role" : "quickLook",
      "scale" : "2x",
      "size" : "108x108",
      "subtype" : "44mm"
    },
    {
      "idiom" : "watch",
      "role" : "quickLook",
      "scale" : "2x",
      "size" : "117x117",
      "subtype" : "45mm"
    },
    {
      "idiom" : "watch-marketing",
      "scale" : "1x",
      "size" : "1024x1024"
    },
    {
      "idiom" : "mac",
      "scale" : "1x",
      "size" : "16x16"
    },
    {
      "idiom" : "mac",
      "scale" : "2x",
      "size" : "16x16"
    },
    {
      "idiom" : "mac",
      "scale" : "1x",
      "size" : "32x32"
    },
    {
      "idiom" : "mac",
      "scale" : "2x",
      "size" : "32x32"
    },
    {
      "idiom" : "mac",
      "scale" : "1x",
      "size" : "128x128"
    },
    {
      "idiom" : "mac",
      "scale" : "2x",
      "size" : "128x128"
    },
    {
      "idiom" : "mac",
      "scale" : "1x",
      "size" : "256x256"
    },
    {
      "idiom" : "mac",
      "scale" : "2x",
      "size" : "256x256"
    },
    {
      "idiom" : "mac",
      "scale" : "1x",
      "size" : "512x512"
    },
    {
      "idiom" : "mac",
      "scale" : "2x",
      "size" : "512x512"
    }
  ],
  "info" : {
    "author" : "xcode",
    "version" : 1
  }
}
